"1","Test Case Name","Test case description here",""
"2","Boot Linux","This test case boots to the Linux shell.","tests/boot/linux.pl"
"3","Explain MVC","I just have to explain MVC pattern","tests/patterns/mvc.pl"
"4","Play SC2","I just have to play SC2","tests/games/sc2.pl"
"5","Watch movie","I just have to watch a movie","tests/movies/random_movie.pl"
